{
  "@context": "/contexts/asso",
  "@id": "/assos",
  "@type": "hydra:Collection",
  "hydra:member": [
    {
      "@id": "/assos/1ec4c4ea-c8c8-6798-90ac-b9d2a785c599",
      "@type": "asso",
      "id": "1ec4c4ea-c8c8-6798-90ac-b9d2a785c599",
      "name": "qui nihil nemo",
      "logo": "https://marine.utt.fr/images/logos/as.png"
    },
    {
      "@id": "/assos/1ec4c4ea-c8c9-65d0-8712-b9d2a785c599",
      "@type": "asso",
      "id": "1ec4c4ea-c8c9-65d0-8712-b9d2a785c599",
      "name": "eum maiores inventore",
      "logo": "https://etu.utt.fr/upload/view/1250/Logo%20BDE.png"
    },
    {
      "@id": "/assos/1ec4c4ea-c8ca-6278-91ed-b9d2a785c599",
      "@type": "asso",
      "id": "1ec4c4ea-c8ca-6278-91ed-b9d2a785c599",
      "name": "eum nihil eos",
      "logo": "https://etu.utt.fr/uploads/logos/agorae.png"
    },
    {
      "@id": "/assos/1ec4c4ea-c8cb-636c-9094-b9d2a785c599",
      "@type": "asso",
      "id": "1ec4c4ea-c8cb-636c-9094-b9d2a785c599",
      "name": "corporis et aliquam",
      "logo": "https://etu.utt.fr/uploads/logos/atecap.png"
    },
    {
      "@id": "/assos/1ec4c4ea-c8cc-6082-98f4-b9d2a785c599",
      "@type": "asso",
      "id": "1ec4c4ea-c8cc-6082-98f4-b9d2a785c599",
      "name": "veniam inventore non",
      "logo": "https://etu.utt.fr/uploads/logos/bda.png"
    },
    {
      "@id": "/assos/1ec4c4ea-c8cc-6f1e-959f-b9d2a785c599",
      "@type": "asso",
      "id": "1ec4c4ea-c8cc-6f1e-959f-b9d2a785c599",
      "name": "incidunt dolores in",
      "logo": "https://etu.utt.fr/uploads/logos/bluffutt.png"
    },
    {
      "@id": "/assos/1ec4c4ea-c8ce-60bc-bbc4-b9d2a785c599",
      "@type": "asso",
      "id": "1ec4c4ea-c8ce-60bc-bbc4-b9d2a785c599",
      "name": "quia non molestiae",
      "logo": "https://etu.utt.fr/uploads/logos/broadway.png"
    },
    {
      "@id": "/assos/1ec4c4ea-c8cf-6106-a920-b9d2a785c599",
      "@type": "asso",
      "id": "1ec4c4ea-c8cf-6106-a920-b9d2a785c599",
      "name": "nostrum dicta dignissimos",
      "logo": "https://etu.utt.fr/uploads/logos/theatre.png"
    },
    {
      "@id": "/assos/1ec4c4ea-c8d0-6010-a8dc-b9d2a785c599",
      "@type": "asso",
      "id": "1ec4c4ea-c8d0-6010-a8dc-b9d2a785c599",
      "name": "quod et at",
      "logo": "https://etu.utt.fr/uploads/logos/cheersutt.png"
    },
    {
      "@id": "/assos/1ec4c4ea-c8d0-6f4c-9f9f-b9d2a785c599",
      "@type": "asso",
      "id": "1ec4c4ea-c8d0-6f4c-9f9f-b9d2a785c599",
      "name": "quia et quaerat",
      "logo": "https://etu.utt.fr/uploads/logos/cocot.png"
    }
  ],
  "hydra:totalItems": 40,
  "hydra:view": {
    "@id": "/assos?page=1",
    "@type": "hydra:PartialCollectionView",
    "hydra:first": "/assos?page=1",
    "hydra:last": "/assos?page=4",
    "hydra:next": "/assos?page=2"
  },
  "hydra:search": {
    "@type": "hydra:IriTemplate",
    "hydra:template": "/assos{?name}",
    "hydra:variableRepresentation": "BasicRepresentation",
    "hydra:mapping": [
      {
        "@type": "IriTemplateMapping",
        "variable": "name",
        "property": "name",
        "required": false
      }
    ]
  }
}